[
  {
    "origin": [
      "https://sheep-tracker-master.web.app/", 
      "https://sheep-tracker-master.firebaseapp.com/", 
      "http://0.0.0.0:3000", 
      "http://localhost:3000"
    ],
    "method": ["GET"],
    "maxAgeSeconds": 3600
  }
]